<svg xmlns="http://www.w3.org/2000/svg" width="370.854" height="511.999" viewBox="0 0 370.854 511.999">
  <g id="pin" transform="translate(-70.573)">
    <g id="Group_169" data-name="Group 169">
      <path id="Path_371" data-name="Path 371" d="M256,0C153.755,0,70.573,83.182,70.573,185.426c0,126.888,165.939,313.167,173,321.035a16.7,16.7,0,0,0,24.846,0c7.065-7.868,173-194.147,173-321.035C441.425,83.182,358.244,0,256,0Zm0,278.719a93.292,93.292,0,1,1,93.291-93.292A93.4,93.4,0,0,1,256,278.719Z" fill="#86c15a"/>
    </g>
  </g>
</svg>
